<?xml version="1.0" encoding="UTF-8" standalone="no"?>
<!-- Created with Inkscape (http://www.inkscape.org/) -->

<svg
   xmlns:dc="http://purl.org/dc/elements/1.1/"
   xmlns:cc="http://creativecommons.org/ns#"
   xmlns:rdf="http://www.w3.org/1999/02/22-rdf-syntax-ns#"
   xmlns:svg="http://www.w3.org/2000/svg"
   xmlns="http://www.w3.org/2000/svg"
   xmlns:sodipodi="http://sodipodi.sourceforge.net/DTD/sodipodi-0.dtd"
   xmlns:inkscape="http://www.inkscape.org/namespaces/inkscape"
   width="500pt"
   height="500pt"
   viewBox="0 0 176.3889 176.38889"
   version="1.1"
   id="svg6553"
   inkscape:version="0.92.3 (2405546, 2018-03-11)"
   sodipodi:docname="lightbulbicon.svg"
   inkscape:export-filename="/home/jesse/Projects/integratedSmartHome/doc/assets/renders/lightbulbicon_white.png"
   inkscape:export-xdpi="20.16"
   inkscape:export-ydpi="20.16">
  <defs
     id="defs6547" />
  <sodipodi:namedview
     id="base"
     pagecolor="#ffffff"
     bordercolor="#666666"
     borderopacity="1.0"
     inkscape:pageopacity="0.0"
     inkscape:pageshadow="2"
     inkscape:zoom="0.49497475"
     inkscape:cx="192.77609"
     inkscape:cy="110.86604"
     inkscape:document-units="pt"
     inkscape:current-layer="g860"
     showgrid="false"
     units="pt"
     inkscape:pagecheckerboard="true"
     showguides="true"
     inkscape:guide-bbox="true"
     inkscape:snap-bbox="true"
     inkscape:bbox-paths="false"
     inkscape:snap-object-midpoints="true"
     inkscape:snap-page="true"
     inkscape:snap-global="true"
     inkscape:snap-nodes="false"
     inkscape:window-width="1853"
     inkscape:window-height="1025"
     inkscape:window-x="67"
     inkscape:window-y="27"
     inkscape:window-maximized="1"
     inkscape:snap-others="true"
     inkscape:object-nodes="false"
     inkscape:snap-intersection-paths="false"
     inkscape:snap-midpoints="false"
     inkscape:bbox-nodes="false"
     inkscape:snap-bbox-edge-midpoints="false"
     inkscape:snap-bbox-midpoints="false"
     inkscape:object-paths="false"
     inkscape:snap-smooth-nodes="false"
     inkscape:snap-center="false">
    <sodipodi:guide
       position="176.38889,88.194445"
       orientation="0,1"
       id="guide6557"
       inkscape:locked="false"
       inkscape:label=""
       inkscape:color="rgb(0,0,255)" />
    <sodipodi:guide
       position="88.194445,176.38889"
       orientation="1,0"
       id="guide6559"
       inkscape:locked="false"
       inkscape:label=""
       inkscape:color="rgb(0,0,255)" />
  </sodipodi:namedview>
  <metadata
     id="metadata6550">
    <rdf:RDF>
      <cc:Work
         rdf:about="">
        <dc:format>image/svg+xml</dc:format>
        <dc:type
           rdf:resource="http://purl.org/dc/dcmitype/StillImage" />
        <dc:title />
      </cc:Work>
    </rdf:RDF>
  </metadata>
  <g
     inkscape:label="Layer 1"
     inkscape:groupmode="layer"
     id="layer1"
     transform="translate(0,-120.61112)">
    <g
       id="g860">
      <path
         sodipodi:nodetypes="csccssssc"
         inkscape:connector-curvature="0"
         id="path6561"
         d="m 134.21251,207.10468 c 0,13.65267 -10.36304,30.8311 -21.51002,35.16179 -7.76104,3.01522 0.44108,19.37152 -7.07975,19.73925 l -34.442215,-0.20379 c -7.118277,-1.74974 -1.402952,-16.79156 -7.355872,-20.66245 -10.216117,-6.64303 -21.018316,-20.22497 -21.018317,-34.03477 -1e-6,-25.24112 20.461971,-45.70309 45.70309,-45.70309 25.241114,0 45.703084,20.46197 45.703084,45.70309 z"
         style="opacity:1;fill:none;fill-opacity:1;fill-rule:nonzero;stroke:#fdffff;stroke-width:3.52777779;stroke-miterlimit:4;stroke-dasharray:none;stroke-opacity:1" />
      <rect
         transform="matrix(0.99921049,-0.03972911,0.09323699,0.99564394,0,0)"
         ry="1.2547693"
         y="269.3367"
         x="43.067795"
         height="2.5095387"
         width="40.524986"
         id="rect7117"
         style="opacity:1;fill:#fffff4;fill-opacity:1;fill-rule:nonzero;stroke:#fdffff;stroke-width:1.00084484;stroke-miterlimit:4;stroke-dasharray:none;stroke-opacity:1" />
      <rect
         transform="matrix(0.99921049,-0.03972911,0.09323699,0.99564394,0,0)"
         ry="1.2547693"
         y="274.87515"
         x="42.550999"
         height="2.5095387"
         width="40.524986"
         id="rect7117-5"
         style="opacity:1;fill:#fffff4;fill-opacity:1;fill-rule:nonzero;stroke:#fdffff;stroke-width:1.00084484;stroke-miterlimit:4;stroke-dasharray:none;stroke-opacity:1" />
      <rect
         transform="matrix(0.99921049,-0.03972911,0.09323699,0.99564394,0,0)"
         ry="1.2547693"
         y="279.98114"
         x="42.074554"
         height="2.5095387"
         width="40.524986"
         id="rect7117-3"
         style="opacity:1;fill:#fffff4;fill-opacity:1;fill-rule:nonzero;stroke:#fdffff;stroke-width:1.00084484;stroke-miterlimit:4;stroke-dasharray:none;stroke-opacity:1" />
      <rect
         transform="matrix(0.99921049,-0.03972911,0.09323699,0.99564394,0,0)"
         ry="1.2547693"
         y="285.27625"
         x="41.580467"
         height="2.5095387"
         width="40.524986"
         id="rect7117-56"
         style="opacity:1;fill:#fffff4;fill-opacity:1;fill-rule:nonzero;stroke:#fdffff;stroke-width:1.00084484;stroke-miterlimit:4;stroke-dasharray:none;stroke-opacity:1" />
      <rect
         transform="rotate(-5.0137463)"
         ry="1.5119047"
         y="206.23883"
         x="124.30508"
         height="3.0238094"
         width="29.104168"
         id="rect91"
         style="fill:#fffff4;fill-opacity:1;stroke:#fdffff;stroke-width:1.00012505;stroke-miterlimit:4;stroke-dasharray:none;stroke-opacity:1" />
      <rect
         transform="rotate(-89.56516)"
         ry="1.5119047"
         y="88.067139"
         x="-155.15009"
         height="3.0238094"
         width="29.104168"
         id="rect91-9"
         style="fill:#fffff4;fill-opacity:1;stroke:#fdffff;stroke-width:1.00012505;stroke-miterlimit:4;stroke-dasharray:none;stroke-opacity:1" />
      <rect
         transform="rotate(-62.135512)"
         ry="1.5119047"
         y="171.46265"
         x="-87.395233"
         height="3.0238094"
         width="29.104168"
         id="rect91-1"
         style="fill:#fffff4;fill-opacity:1;stroke:#fdffff;stroke-width:1.00012505;stroke-miterlimit:4;stroke-dasharray:none;stroke-opacity:1" />
      <rect
         transform="rotate(20.23497)"
         ry="1.5119047"
         y="155.01163"
         x="207.7054"
         height="3.0238094"
         width="29.104168"
         id="rect91-2"
         style="fill:#fffff4;fill-opacity:1;stroke:#fdffff;stroke-width:1.00012505;stroke-miterlimit:4;stroke-dasharray:none;stroke-opacity:1" />
      <rect
         transform="rotate(-34.402009)"
         ry="1.5119047"
         y="216.82014"
         x="12.768558"
         height="3.0238094"
         width="29.104168"
         id="rect91-6"
         style="fill:#fffff4;fill-opacity:1;stroke:#fdffff;stroke-width:1.00012505;stroke-miterlimit:4;stroke-dasharray:none;stroke-opacity:1" />
      <rect
         transform="matrix(-0.99617376,-0.08739475,-0.08739475,0.99617376,0,0)"
         ry="1.5119047"
         y="190.76831"
         x="-52.036449"
         height="3.0238094"
         width="29.104168"
         id="rect91-18"
         style="fill:#fffff4;fill-opacity:1;stroke:#fdffff;stroke-width:1.00012505;stroke-miterlimit:4;stroke-dasharray:none;stroke-opacity:1" />
      <rect
         transform="matrix(-0.46738197,-0.88405548,-0.88405548,0.46738197,0,0)"
         ry="1.5119047"
         y="14.968174"
         x="-170.13066"
         height="3.0238094"
         width="29.104168"
         id="rect91-1-9"
         style="fill:#fffff4;fill-opacity:1;stroke:#fdffff;stroke-width:1.00012505;stroke-miterlimit:4;stroke-dasharray:none;stroke-opacity:1" />
      <rect
         transform="matrix(-0.9382821,0.34587094,0.34587094,0.9382821,0,0)"
         ry="1.5119047"
         y="216.2373"
         x="41.611774"
         height="3.0238094"
         width="29.104166"
         id="rect91-2-2"
         style="fill:#fffff4;fill-opacity:1;stroke:#fdffff;stroke-width:1.00012505;stroke-miterlimit:4;stroke-dasharray:none;stroke-opacity:1" />
      <rect
         transform="matrix(-0.82509369,-0.56499593,-0.56499593,0.82509369,0,0)"
         ry="1.5119047"
         y="116.80522"
         x="-133.28857"
         height="3.0238094"
         width="29.104168"
         id="rect91-6-0"
         style="fill:#fffff4;fill-opacity:1;stroke:#fdffff;stroke-width:1.00012505;stroke-miterlimit:4;stroke-dasharray:none;stroke-opacity:1" />
      <path
         sodipodi:nodetypes="cccccc"
         inkscape:connector-curvature="0"
         id="path1033"
         d="m 100.91964,261.47025 8.31548,-56.69643 c -6.41507,2.38977 -12.017434,8.35544 -20.788692,0.37798 -5.713936,7.72538 -13.7157,2.86772 -21.355655,0 l 10.205358,56.50744 z"
         style="fill:none;stroke:#fdffff;stroke-width:1.7638889;stroke-linecap:butt;stroke-linejoin:miter;stroke-miterlimit:4;stroke-dasharray:none;stroke-opacity:1" />
    </g>
  </g>
</svg>
